id,type,text1,text2,text3,notes
,,,,,
SAD_shrike_rack,WEAPON,"A short-ranged tracking missile, launched from a triple-rack. Intended to bypass active defenses by virtue of overwhelming velocity.

Railgun assisted kinetic penetrator.  Propulsion is very potent, but fuel supply quite short, giving almost no chance of recovery if the shot misses.  Effective primarily against shields.  It is fitted with a small explosive charge, which is set to go off when it senses it is surrounded by a targeted ships hull; while the damage to the hull is typically small, this can damage and disrupt shipboard systems.

The modified version of the Sanguinary Anarchist increase the aiming but reduce the amount of explosive charge on the missile.",Close Support,,
SAD_shrike_pod,WEAPON,"A short-ranged tracking missile, launched from a magazine-fed dual pod. Intended to pierce active defenses by virtue of overwhelming velocity.

Railgun assisted kinetic penetrator.  Propulsion is very potent, but fuel supply quite short, giving almost no chance of recovery if the shot misses.  Effective primarily against shields.  It is fitted with a small explosive charge, which is set to go off when it senses it is surrounded by a targeted ships hull; while the damage to the hull is typically small, this can damage and disrupt shipboard systems..

The modified version of the Sanguinary Anarchist increase the aiming but reduce the amount of explosive charge on the missile.",Close Support,,
SAD_cepc,WEAPON,"The CEPC, or Carried Energy Pulse Cannon, is an SRA weapon system capable of significant, if front loaded, damage.

Rather than fire the bolt through a typical lasing medium or projector, Shadowyards researchers opted to utilize a physical medium to act as a carrier for the energy pulse.  While the method has proven to be somewhat more efficient than many other methods and can produce highly damaging bolts, the Charge Carrier Medium (CCM) must be charged before firing, resulting in a limited capacity of available shots at any given time.  The CEPC's fire rate is more than sufficient for this to lead to noticeable drops in combat efficiency in fairly short time frames.

The modified version of the Sanguinary Anarchist modify the number of projectile fired per the weapon.",Close Support,,
SAD_hcepc,WEAPON,"The CEPC, or Carried Energy Pulse Cannon, is an SRA weapon system capable of significant, if front loaded, damage.

Rather than fire the bolt through a typical lasing medium or projector, Shadowyards researchers opted to utilize a physical medium to act as a carrier for the energy pulse.  While the method has proven to be somewhat more efficient than many other methods and can produce highly damaging bolts, the Charge Carrier Medium (CCM) must be charged before firing, resulting in a limited capacity of available shots at any given time.  The CEPC's fire rate is more than sufficient for this to lead to noticeable drops in combat efficiency in fairly short time frames.

The modified version of the Sanguinary Anarchist modify the number of projectile fired per the weapon.",Close Support,,
SAD_stopper1,WEAPON,"Sometimes, you need a Scatter CEPC for your phase ship.
This Stopper version of the Shamash do not pass shield or break the engine, but inflict true damage.",Close Support,,
SAD_pdcepc,WEAPON,"The Light variant of the CEPC is the SRA's most common dedicated CIWS system, focused on maintaining a high fire rate with excellent accuracy.

Cyclic loading chambers allow the weapon to maintain an extremely high rate of fire; charge carriers are small but capable of reasonable damage at short range.  High accuracy and limited engagement envelope leave it most effective for providing Close Weapons Support against enemy fighters and missiles.",Point Defense,,
SAD_mcepc,WEAPON,"The Medium CEPC is well liked amongst Shadowyards forces, well regarded as a reliable and deadly weapons platform, despite the high fitting requirements this advanced hardware requires.

Twin cannons ensure a high rate of fire with good accuracy while extended accelerator rails give it superior range.  An improved charging system allows it to fire larger CCM pellets safely, which has greatly improved the weapons damage at some cost in efficiency.

The modified version of the Sanguinary Anarchist modify the number of projectile fired per the weapon.",Assault,,
SAD_wamgun,WEAPON,"Featuring distinctive crescent-bolts of energy, the 'Wavepulse' Cannon is a general-purpose, if exotic, weapon of war.

Ultimately a simple weapon, the Wavepulse is actually numerous smaller particle cannons, horizontally aligned firing in sequence to produce a much larger blast of energy.  Of only middling efficiency, the configuration of particle projectors is nevertheless quite effective at producing localized stress to shields and armor, and the weapon is noted for leaving distinctive 'scars' on damaged hull plating.  The resulting 'cutting' effect can on occasion inflict additional damage as a result of secondary stresses resulting from the unusual damage pattern.

The SAD version increase the capacity of the weapon to shoot but lose insane damage on the process.",Close Support,,
SAD_mpolar,WEAPON,"The Polarizer is an energy weapon that delivers an modest electromagnetic pulse (EMP) charge. The polarizer carries its charges on a variant of the CEPC’s carrier medium, which, in it’s highly charged state, becomes unstable; it also fires a shielded micro-sensor which detects hostile craft and causes the blast to explode, delivering its charge to targets within a short range.

As such the Polarizer sees a good deal of use as a general purpose close defense battery, though it remains useful in disabling enemy ships.

The medium version from the Sanguinary Anarchist use always the same ammo, but with a high fire-rate.",Special,,
SAD_stormBlaster,WEAPON,"Rotary energy weapon system with an extremely high rate of fire. With a insane ammo magazine, it can shoot for a long time before run out.
Particle masses become unstable after a short distance and tend to detonate spectacularly when near dense concentrations of matter, such as starships.  Though it's damage against shields and armor is middling at best, the Storm Blaster shines when engaging small craft or vessels with unprotected hull.",Close Support,,
SAD_slowbeamM,WEAPON,This unique weapon of Atan-Class is a Mono CAS Beam reduced for be usable for the Atan.,Close Support,,
SAD_slowbeamH,WEAPON,"The Break CAS Beam is a modified weapon of Deva CAS Beam, where the damage output is constant, but the impact become pretty weak.",Close Support,,
,,,,,
SAD_booster,SHIP_SYSTEM,"Activates ancilliary thrusters as well as increasing main drive output, leading to a brief increase to maximum speed at the cost of flux.",Movement,Provides a brief boost to top speed.,
SAD_displacer,SHIP_SYSTEM,Teleports the ship forward in the direction it's traveling. The system slowly builds up to four charges which can then be expended in short order.,Movement,Teleports the ship forward in the direction it's traveling. The system can store up to four charges at once and generates flux when used.,
SAD_reservewing,SHIP_SYSTEM,"This ship system is exactly the same than the standard shipsystem, except than it do not deploy extra fighter if they cost more than 15 OP. Deploy always 2 extra fighters except if the wing is a unique fighter.",Fighter,Deploys extra 2 fighter craft that can fight for a short time before returning to the carrier. Do not deploy craft if the OP cost is superior to 15,
SAD_siegemode,SHIP_SYSTEM,"While in use, this system improves shield and weapon efficiency as well as weapons range, but reroutes power from the thrusters  in the process, greatly impairing mobility.",Defensive,"Improves shield efficiency, weapon efficiency, and weapons range. Greatly reduces mobility.",
SAD_DisturbSystem,SHIP_SYSTEM,"The system uses the sensor to find weaknesses in enemy ships, increasing the damage they take by 25%. ",Offensive,"The system uses the sensor to find weaknesses in enemy ships, increasing the damage they take by 25%. ",
SAD_transform,SHIP_SYSTEM,"The Apis can switch between a high mobility mode, boosting engine performance by 50 percent, and a heavy assault mode, boosting range and recoil of weapons by 50 percent and reducing their flux cost by 50 percent.",Offensive,Switch between high mobility or heavy assault modes.,
SAD_wadjet_transform,SHIP_SYSTEM,"The Wadjet can switch between a high mobility mode, boosting engine performance by 50 percent, and a heavy assault mode, boosting range and recoil of weapons by 50 percent and reducing their flux cost by 50 percent.",Offensive,Switch between high mobility or heavy assault modes.,
SAD_flux_perf,SHIP_SYSTEM,"The Hapy can switch to a  assault mode, boosting range by 15 percent and reducing their flux cost by 50 percent. Otherwise, lost engine performance.",Offensive,Switch between mobility or assault modes.,
SAD_BurnDrive,SHIP_SYSTEM,Temporarily engages a primary burn on the system travel drive of the ship. Provides a massive speed boost for a fixed time at the expense of being able to use shields.,Movement,Provides a massive speed boost at the expense of being unable to use shields.,
SAD_flare,SHIP_SYSTEM,Launches flares that distract the guidance systems of incoming missiles and PD weapons. The flares also track missiles and any missile impacting a flare will be destroyed.,Defensive,Launches flares to confuse the guidance systems of nearby enemy missiles. The flares are fast and actively track the missiles.,
,,,,,
SAD_Wadjet,SHIP,"While Wadjet shares the Neriad's design, it has few differences, most notable one are replaced weapons with 2 CPEC.
The mission of the Wadjet is to be usable everywhere on the sector or planet like the Neriad.
It have be upgraded for get more top-speed and a better front shield. Otherwise, the cost of this fighter is the twice of the Neriad.",,,
SAD_Anuket,SHIP,"Not very effecient, the Anuket-Class  is a simple bomber with two smalls Strike ASM missile and nothing else.
",,,
SAD_Neith,SHIP,"The SAD utilised the blueprint of the Seski class corvette in designing this frigate. Upscaling from corvette to frigate has removed the weaknesses of the Seski and increased the offensive power and shipsystems of the Neith-class, however it has also resulted in a comparative loss of speed.",,,
SAD_Thoth,SHIP,"The Thoth class have be designed with the blueprint of the Enlil-class, designed for the speed, he combine a excellent shipsystem with a standard armor
and skills compared to the standard of Shadowyard Industry.",,,
SAD_Seshat,SHIP,"The Seshat-class carrier have be designed per the SAD with the Morningstar-class blueprint.
This carrier have for function to stock qew fighters for intercept enemy or re-fuel these fighters.
But otherwise, it lack of functionality.",,,
SAD_Hapy,SHIP,"This Hapy-class can be very strange when people know what blueprint have be used per the SAD.
It have be designed after a Southpaw-class and the good frontal firepower.
Like many others frigates, it got the Phase Skimmer shipsystem.",,,
SAD_Qadesh,SHIP,"The Qadesh-class is designed with the Cetus-class blueprint, the lack of a freighter and the no-neccessity of a heavy freighter have made this ship.
But they needed also their own freighter.",,,
SAD_Tefnut,SHIP,"The Tefnut-class is desgined with the Semele-class blueprint, with the same reason than the Qadesh, the Semele is a too big tanker and they needed a tanker for their personal use.
But they needed also their own tanker.",,,
SAD_Hathor,SHIP,"The Hathor-class is a carrier with a consequent reserve of fighter.
When needed, it can deploy two more fighter for fight, but keep to do that always for do not overload the system of the ship.
It have be designed with the Delphi-class blueprint.",,,
SAD_Ptah,SHIP,"The Ptah-class can be called the baby Tartarus with a shipsystem identical to Tartarus.
Designed with the Tartarus-class blueprint, it got strong firepower but not the best ship.",,,
SAD_Khonsu,SHIP,"The Khonsu-class is fast, strong mount and good shipsystem. It have be maded with the Minarette-class blueprint and Inanna-class blueprint.
It is probably the best ship of SAD armements.",,,
SAD_Apis,SHIP,"The Apis-class is a elite destroyer, cannot be compared to others ships, if it have the same blueprint of Clade-class, theses performances are beyond others.
It can switch between two modes for be more versality, the system can be compared to the Tartarus system, but do not include defense capacity.",,,
SAD_Imhotep,SHIP,"The Imhotep-class is a strong battlecarrier with a decent amount of firepower.
Maded with the Skadi-class blueprint, it own the same shipsystem than the Hathor where it can deploy two more fighter or bomber when needed.",,,
SAD_Maat,SHIP,"The Maat-class is a ship who follow the concept of the Delphi-class with a defense of the level of the Tartarus.
The built-in wave pulse of the Maat-class have for reason to be less expensive than made apart.
It can lack of firepower compared to Clade-class but have strong defense.",,,
SAD_Owclaw,SHIP,"The Owclaw-class was designed by a deranged genius amongst the Sanguinary Anarchists, after they apparently witnessed a very similar ship in action. An expensive ship, lacking in point defence, its modus operandi is to overwhelm its opponents utterly. After all, the best defence is a good offence.",,,
SAD_Taweret,SHIP,"The Taweret-class is a monster of complexity with the blueprint of the Belet-Seri-class and others capitals blueprint.
Capable of found every weakness of every enemy on the radar, it can destroy them without problem.
And if your shield is down, it finish you with the heavy Storm Blaster installed on the front of the ship.",,,
SAD_MotherShip_2,SHIP,This version of Mothership is a clean version and probably the most monstruosity of the Sanguinary Anarchists faction.,,,
SAD_MotherShip,SHIP,"Nobody knows who made this monstrosity. All they know is that it has been made out of collected scrap parts from all the shadowyard ships that are currently in use.

It clearly lacks in power for a ship its size, but it has not been made for offensive use, although the SAD have stolen the blueprints of the Nidhögger lance and included it in the design. The MotherShip is a dedicated support ship that is used as a mobile shipyard, to prepare for the future sanguinary invasion",,,
SAD_Atan_b,SHIP,"Atan-class is a ship so expensive and hard to made than everyone think than theses Anarchists have steal theses ships.
Probably the case. The Atan is a ship with a insane speed who switch to a defensive mode if he overload or venting for reduce damage taken.
With this insane defense and speed, the shipsystem permit to redirect some of the engine to the weapon.

The Atan(B) is a damaged version who have lost their speed and the unique built-in weapon, who have be replaced per a chainGun.",,,
SAD_Atan,SHIP,"Atan-class is a ship so expensive and hard to made than everyone think than theses Anarchists have steal theses ships.
Probably the case. The Atan is a ship with a insane speed who switch to a defensive mode if he overload or venting for reduce damage taken.
With this insane defense and speed, the shipsystem permit to redirect some of the engine to the weapon.
But this ship is rare and people have just see three of them.",,,
SAD_Niddhoggr,SHIP,"The Niddhoggr is a ship that was never meant to see the light of day. After all it started as a simple pipe dream that simply kept on being considered possible, as its makers saw how powerful such a ship could be in the middle of battle. Being one of the most impressive ships out there, it shouldn't surprise anyone that this ship is a logistical nightmare in peaceful times, because it is meant to fight or simply defend key locations. There are rumors that certain factions have stolen this design and simply added a new paintjob to it because SAD made that a lot easier than SRA ever did when they used these ships to intimidate other factions. Mining versions of this ship, as ridiculous as it sounds used to exist, but unfortunately all production chips for it were lost or seized by certain factions in order to prevent such ships from oversaturating markets with ore.
Niddhoggr is equipped with luxurious interior that leaves finest accomodations available in the Sector in dirt. It even has a tram system in order to get to different parts of the ship quickly, which means it's one of the craziest ships out there. Tram lines are used to carry things like ammunition to weapons and move crew from one place to another without having to walk, which speeds up all activities done by crew. Its massive array of thrusters allows it to perform manoeuvres which are so dangerous to the crew that some parts of the ship are entirely automated, so that crew won't be endangered. Another important fact about the Niddhoggr is that unknown to some, its originally was called Jörmungandr, which meant ""huge monster""  in Norse mythology.  Some random person decided to call it the Niddhoggr, since they thought a dragon/serpent who gnaws at the root of the world tree was more convincing when the original Jormungandr still had the original paintjob. Some still argue that this ship's true nature is connected to the infamous Unsung project which existed pre-Collapse, but most of that has changed since SRA dropped the design and SAD stole it from their scrap yards.
As a last note, if you see a Niddhoggr facing you in combat, face the opposite way and fly as far away as you can, if you want to survive the encounter of course. The chances one will ever fly one of these will only be reserved to those who fought for such once in a lifetime opportunity,  even that is an exaggeration. Very few ships of this class remain in combat-capable condition. If equipped properly it can wipe entire navies, but losing one in combat can result in the suicide of their owners because they often represent the only thing capable of surviving easily in this sector. Post-collapse, ships of this class represent a safe haven for those seeking a peaceful life filled with luxury and a surrounded by cold hard walls painted over with wacky colors to hide their space misery. If you ever capture a Niddhoggr, the best thing you can do is treat this massive object with massive respect. Chances are its older than anyone you know or even the gates themselves, some say. If you ever lose a Niddhoggr during combat, you might consider revisiting your resume as you will either be mutilated by the families of the dead crew members or thrown out the airlock for your incompetence. Fates worse than these were reported, but were quickly classified because of sheer amount of brutality and savagery that puts even most insane Pirate Warlords to shame.",,,
SAD_Babi,SHIP,"Nobody want know why these people have made this version of Phase ship, who is a Shamash completely modified and probably good for the trash.
But they like this ship, the rest is not important.",,,
