{
    "faction":"sad",
    "firstname":"Jeanne",
    "lastname":"DuLoup",
    "gender":"F",    # M/F/N  (Male, female, any)
    "officerlevel":-1, # Per default if -1, put the officerLevel max of your settings.

    "mainShip":"SAD_Niddhoggr_Standard", # Flag Ship variant
    "ships":[], # Variants added after the mainShip

    "randomFleet":false, # If random fleet(from the faction) will be added.
    "reward":150000, # Bounty reward.
    "description":"Jeanne DuLoup is famous for fight alone with a capital.",
    "dialog":"Hello, ready to death against ONE ship?",

    "avatar":"graphics/portraits/portrait37.png", # Portrait of the Gladiator
}
